Hello from rank 0, thread 0, on nid00606. (core affinity = 0)
Hello from rank 0, thread 4, on nid00606. (core affinity = 4)
Hello from rank 0, thread 6, on nid00606. (core affinity = 6)
Hello from rank 0, thread 13, on nid00606. (core affinity = 13)
Hello from rank 0, thread 1, on nid00606. (core affinity = 1)
Hello from rank 0, thread 8, on nid00606. (core affinity = 8)
Hello from rank 0, thread 12, on nid00606. (core affinity = 12)
Hello from rank 0, thread 3, on nid00606. (core affinity = 3)
Hello from rank 0, thread 2, on nid00606. (core affinity = 2)
Hello from rank 0, thread 14, on nid00606. (core affinity = 14)
Hello from rank 0, thread 5, on nid00606. (core affinity = 5)
Hello from rank 0, thread 15, on nid00606. (core affinity = 15)
Hello from rank 0, thread 9, on nid00606. (core affinity = 9)
Hello from rank 0, thread 7, on nid00606. (core affinity = 7)
Hello from rank 0, thread 11, on nid00606. (core affinity = 11)
Hello from rank 0, thread 10, on nid00606. (core affinity = 10)
Hello from rank 1, thread 15, on nid00606. (core affinity = 31)
Hello from rank 1, thread 6, on nid00606. (core affinity = 22)
Hello from rank 1, thread 3, on nid00606. (core affinity = 19)
Hello from rank 1, thread 2, on nid00606. (core affinity = 18)
Hello from rank 1, thread 5, on nid00606. (core affinity = 21)
Hello from rank 1, thread 12, on nid00606. (core affinity = 28)
Hello from rank 1, thread 11, on nid00606. (core affinity = 27)
Hello from rank 1, thread 8, on nid00606. (core affinity = 24)
Hello from rank 1, thread 0, on nid00606. (core affinity = 16)
Hello from rank 1, thread 4, on nid00606. (core affinity = 20)
Hello from rank 1, thread 14, on nid00606. (core affinity = 30)
Hello from rank 1, thread 9, on nid00606. (core affinity = 25)
Hello from rank 1, thread 1, on nid00606. (core affinity = 17)
Hello from rank 1, thread 7, on nid00606. (core affinity = 23)
Hello from rank 1, thread 10, on nid00606. (core affinity = 26)
Hello from rank 1, thread 13, on nid00606. (core affinity = 29)
Hello from rank 2, thread 0, on nid00625. (core affinity = 0)
Hello from rank 2, thread 11, on nid00625. (core affinity = 11)
Hello from rank 2, thread 6, on nid00625. (core affinity = 6)
Hello from rank 2, thread 2, on nid00625. (core affinity = 2)
Hello from rank 2, thread 4, on nid00625. (core affinity = 4)
Hello from rank 2, thread 3, on nid00625. (core affinity = 3)
Hello from rank 2, thread 15, on nid00625. (core affinity = 15)
Hello from rank 2, thread 10, on nid00625. (core affinity = 10)
Hello from rank 2, thread 14, on nid00625. (core affinity = 14)
Hello from rank 2, thread 9, on nid00625. (core affinity = 9)
Hello from rank 2, thread 1, on nid00625. (core affinity = 1)
Hello from rank 2, thread 7, on nid00625. (core affinity = 7)
Hello from rank 2, thread 12, on nid00625. (core affinity = 12)
Hello from rank 2, thread 13, on nid00625. (core affinity = 13)
Hello from rank 2, thread 5, on nid00625. (core affinity = 5)
Hello from rank 2, thread 8, on nid00625. (core affinity = 8)
Hello from rank 3, thread 15, on nid00625. (core affinity = 31)
Hello from rank 3, thread 1, on nid00625. (core affinity = 17)
Hello from rank 3, thread 8, on nid00625. (core affinity = 24)
Hello from rank 3, thread 11, on nid00625. (core affinity = 27)
Hello from rank 3, thread 3, on nid00625. (core affinity = 19)
Hello from rank 3, thread 14, on nid00625. (core affinity = 30)
Hello from rank 3, thread 6, on nid00625. (core affinity = 22)
Hello from rank 3, thread 12, on nid00625. (core affinity = 28)
Hello from rank 3, thread 2, on nid00625. (core affinity = 18)
Hello from rank 3, thread 7, on nid00625. (core affinity = 23)
Hello from rank 3, thread 13, on nid00625. (core affinity = 29)
Hello from rank 3, thread 0, on nid00625. (core affinity = 16)
Hello from rank 3, thread 10, on nid00625. (core affinity = 26)
Hello from rank 3, thread 9, on nid00625. (core affinity = 25)
Hello from rank 3, thread 4, on nid00625. (core affinity = 20)
Hello from rank 3, thread 5, on nid00625. (core affinity = 21)
